<?xml version="1.0" encoding="UTF-8" standalone="no"?>
<!-- Created with Inkscape (http://www.inkscape.org/) -->

<svg
   xmlns:dc="http://purl.org/dc/elements/1.1/"
   xmlns:cc="http://creativecommons.org/ns#"
   xmlns:rdf="http://www.w3.org/1999/02/22-rdf-syntax-ns#"
   xmlns:svg="http://www.w3.org/2000/svg"
   xmlns="http://www.w3.org/2000/svg"
   xmlns:sodipodi="http://sodipodi.sourceforge.net/DTD/sodipodi-0.dtd"
   xmlns:inkscape="http://www.inkscape.org/namespaces/inkscape"
   version="1.1"
   id="svg2"
   xml:space="preserve"
   width="323"
   height="538.99121"
   viewBox="0 0 322.99999 538.99121"
   sodipodi:docname="primograf.svg"
   inkscape:version="0.92.2 (5c3e80d, 2017-08-06)"><metadata
     id="metadata8"><rdf:RDF><cc:Work
         rdf:about=""><dc:format>image/svg+xml</dc:format><dc:type
           rdf:resource="http://purl.org/dc/dcmitype/StillImage" /><dc:title></dc:title></cc:Work></rdf:RDF></metadata><defs
     id="defs6"><clipPath
       clipPathUnits="userSpaceOnUse"
       id="clipPath28"><path
         d="M 0,0 H 1122 V 793.33333 H 0 Z"
         id="path26"
         inkscape:connector-curvature="0"
         style="clip-rule:evenodd" /></clipPath><clipPath
       clipPathUnits="userSpaceOnUse"
       id="clipPath56"><path
         d="M 0,0 H 1122 V 793.33333 H 0 Z"
         id="path54"
         inkscape:connector-curvature="0"
         style="clip-rule:evenodd" /></clipPath><clipPath
       clipPathUnits="userSpaceOnUse"
       id="clipPath62"><path
         d="M 461.77824,76.262462 H 784.88842 V 188.18198 H 461.77824 Z"
         id="path60"
         inkscape:connector-curvature="0"
         style="clip-rule:evenodd" /></clipPath><clipPath
       clipPathUnits="userSpaceOnUse"
       id="clipPath76"><path
         d="M 0,0 H 1122 V 793.33333 H 0 Z"
         id="path74"
         inkscape:connector-curvature="0"
         style="clip-rule:evenodd" /></clipPath><clipPath
       clipPathUnits="userSpaceOnUse"
       id="clipPath82"><path
         d="M 461.77824,76.262462 H 784.88842 V 188.18198 H 461.77824 Z"
         id="path80"
         inkscape:connector-curvature="0"
         style="clip-rule:evenodd" /></clipPath><clipPath
       clipPathUnits="userSpaceOnUse"
       id="clipPath88"><path
         d="M 436.1235,95.972408 H 810.54316 V 168.47203 H 436.1235 Z"
         id="path86"
         inkscape:connector-curvature="0"
         style="clip-rule:evenodd" /></clipPath><clipPath
       clipPathUnits="userSpaceOnUse"
       id="clipPath108"><path
         d="M 0,0 H 1122 V 793.33333 H 0 Z"
         id="path106"
         inkscape:connector-curvature="0"
         style="clip-rule:evenodd" /></clipPath><clipPath
       clipPathUnits="userSpaceOnUse"
       id="clipPath118"><path
         d="M 0,0 H 1122 V 793.33333 H 0 Z"
         id="path116"
         inkscape:connector-curvature="0"
         style="clip-rule:evenodd" /></clipPath><clipPath
       clipPathUnits="userSpaceOnUse"
       id="clipPath124"><path
         d="M 461.77824,76.262462 H 784.88842 V 188.18198 H 461.77824 Z"
         id="path122"
         inkscape:connector-curvature="0"
         style="clip-rule:evenodd" /></clipPath><clipPath
       clipPathUnits="userSpaceOnUse"
       id="clipPath144"><path
         d="M 0,0 H 1122 V 793.33333 H 0 Z"
         id="path142"
         inkscape:connector-curvature="0"
         style="clip-rule:evenodd" /></clipPath><clipPath
       clipPathUnits="userSpaceOnUse"
       id="clipPath170"><path
         d="M 0,0 H 1122 V 793.33333 H 0 Z"
         id="path168"
         inkscape:connector-curvature="0"
         style="clip-rule:evenodd" /></clipPath><clipPath
       clipPathUnits="userSpaceOnUse"
       id="clipPath176"><path
         d="m 561.88935,246.26246 h 122.88796 v 61.85926 H 561.88935 Z"
         id="path174"
         inkscape:connector-curvature="0"
         style="clip-rule:evenodd" /></clipPath><clipPath
       clipPathUnits="userSpaceOnUse"
       id="clipPath190"><path
         d="M 0,0 H 1122 V 793.33333 H 0 Z"
         id="path188"
         inkscape:connector-curvature="0"
         style="clip-rule:evenodd" /></clipPath><clipPath
       clipPathUnits="userSpaceOnUse"
       id="clipPath196"><path
         d="m 561.88935,246.26246 h 122.88796 v 61.85926 H 561.88935 Z"
         id="path194"
         inkscape:connector-curvature="0"
         style="clip-rule:evenodd" /></clipPath><clipPath
       clipPathUnits="userSpaceOnUse"
       id="clipPath202"><path
         d="M 536.23461,221.7512 H 710.43205 V 332.63298 H 536.23461 Z"
         id="path200"
         inkscape:connector-curvature="0"
         style="clip-rule:evenodd" /></clipPath><clipPath
       clipPathUnits="userSpaceOnUse"
       id="clipPath234"><path
         d="M 0,0 H 1122 V 793.33333 H 0 Z"
         id="path232"
         inkscape:connector-curvature="0"
         style="clip-rule:evenodd" /></clipPath><clipPath
       clipPathUnits="userSpaceOnUse"
       id="clipPath244"><path
         d="M 0,0 H 1122 V 793.33333 H 0 Z"
         id="path242"
         inkscape:connector-curvature="0"
         style="clip-rule:evenodd" /></clipPath><clipPath
       clipPathUnits="userSpaceOnUse"
       id="clipPath250"><path
         d="m 561.88935,246.26246 h 122.88796 v 61.85926 H 561.88935 Z"
         id="path248"
         inkscape:connector-curvature="0"
         style="clip-rule:evenodd" /></clipPath><clipPath
       clipPathUnits="userSpaceOnUse"
       id="clipPath270"><path
         d="M 0,0 H 1122 V 793.33333 H 0 Z"
         id="path268"
         inkscape:connector-curvature="0"
         style="clip-rule:evenodd" /></clipPath><clipPath
       clipPathUnits="userSpaceOnUse"
       id="clipPath306"><path
         d="M 0,0 H 1122 V 793.33333 H 0 Z"
         id="path304"
         inkscape:connector-curvature="0"
         style="clip-rule:evenodd" /></clipPath><clipPath
       clipPathUnits="userSpaceOnUse"
       id="clipPath312"><path
         d="m 630.75104,199.79596 h 126.01285 v 26.45 H 630.75104 Z"
         id="path310"
         inkscape:connector-curvature="0"
         style="clip-rule:evenodd" /></clipPath><clipPath
       clipPathUnits="userSpaceOnUse"
       id="clipPath326"><path
         d="M 0,0 H 1122 V 793.33333 H 0 Z"
         id="path324"
         inkscape:connector-curvature="0"
         style="clip-rule:evenodd" /></clipPath><clipPath
       clipPathUnits="userSpaceOnUse"
       id="clipPath332"><path
         d="m 630.75104,199.79596 h 126.01285 v 26.45 H 630.75104 Z"
         id="path330"
         inkscape:connector-curvature="0"
         style="clip-rule:evenodd" /></clipPath><clipPath
       clipPathUnits="userSpaceOnUse"
       id="clipPath338"><path
         d="m 605.0963,174.14122 h 177.32233 v 72.49963 H 605.0963 Z"
         id="path336"
         inkscape:connector-curvature="0"
         style="clip-rule:evenodd" /></clipPath><clipPath
       clipPathUnits="userSpaceOnUse"
       id="clipPath358"><path
         d="M 0,0 H 1122 V 793.33333 H 0 Z"
         id="path356"
         inkscape:connector-curvature="0"
         style="clip-rule:evenodd" /></clipPath><clipPath
       clipPathUnits="userSpaceOnUse"
       id="clipPath368"><path
         d="M 0,0 H 1122 V 793.33333 H 0 Z"
         id="path366"
         inkscape:connector-curvature="0"
         style="clip-rule:evenodd" /></clipPath><clipPath
       clipPathUnits="userSpaceOnUse"
       id="clipPath374"><path
         d="m 630.75104,199.79596 h 126.01285 v 26.45 H 630.75104 Z"
         id="path372"
         inkscape:connector-curvature="0"
         style="clip-rule:evenodd" /></clipPath><clipPath
       clipPathUnits="userSpaceOnUse"
       id="clipPath394"><path
         d="M 0,0 H 1122 V 793.33333 H 0 Z"
         id="path392"
         inkscape:connector-curvature="0"
         style="clip-rule:evenodd" /></clipPath><clipPath
       clipPathUnits="userSpaceOnUse"
       id="clipPath426"><path
         d="M 0,0 H 1122 V 793.33333 H 0 Z"
         id="path424"
         inkscape:connector-curvature="0"
         style="clip-rule:evenodd" /></clipPath><clipPath
       clipPathUnits="userSpaceOnUse"
       id="clipPath432"><path
         d="M 461.77824,378.48468 H 784.88842 V 490.4042 H 461.77824 Z"
         id="path430"
         inkscape:connector-curvature="0"
         style="clip-rule:evenodd" /></clipPath><clipPath
       clipPathUnits="userSpaceOnUse"
       id="clipPath446"><path
         d="M 0,0 H 1122 V 793.33333 H 0 Z"
         id="path444"
         inkscape:connector-curvature="0"
         style="clip-rule:evenodd" /></clipPath><clipPath
       clipPathUnits="userSpaceOnUse"
       id="clipPath452"><path
         d="M 461.77824,378.48468 H 784.88842 V 490.4042 H 461.77824 Z"
         id="path450"
         inkscape:connector-curvature="0"
         style="clip-rule:evenodd" /></clipPath><clipPath
       clipPathUnits="userSpaceOnUse"
       id="clipPath458"><path
         d="m 436.1235,398.19463 h 374.41966 v 72.49963 H 436.1235 Z"
         id="path456"
         inkscape:connector-curvature="0"
         style="clip-rule:evenodd" /></clipPath><clipPath
       clipPathUnits="userSpaceOnUse"
       id="clipPath478"><path
         d="M 0,0 H 1122 V 793.33333 H 0 Z"
         id="path476"
         inkscape:connector-curvature="0"
         style="clip-rule:evenodd" /></clipPath><clipPath
       clipPathUnits="userSpaceOnUse"
       id="clipPath488"><path
         d="M 0,0 H 1122 V 793.33333 H 0 Z"
         id="path486"
         inkscape:connector-curvature="0"
         style="clip-rule:evenodd" /></clipPath><clipPath
       clipPathUnits="userSpaceOnUse"
       id="clipPath494"><path
         d="M 461.77824,378.48468 H 784.88842 V 490.4042 H 461.77824 Z"
         id="path492"
         inkscape:connector-curvature="0"
         style="clip-rule:evenodd" /></clipPath><clipPath
       clipPathUnits="userSpaceOnUse"
       id="clipPath514"><path
         d="M 0,0 H 1122 V 793.33333 H 0 Z"
         id="path512"
         inkscape:connector-curvature="0"
         style="clip-rule:evenodd" /></clipPath><clipPath
       clipPathUnits="userSpaceOnUse"
       id="clipPath546"><path
         d="M 0,0 H 1122 V 793.33333 H 0 Z"
         id="path544"
         inkscape:connector-curvature="0"
         style="clip-rule:evenodd" /></clipPath><clipPath
       clipPathUnits="userSpaceOnUse"
       id="clipPath552"><path
         d="m 568.59975,555.74724 h 109.46716 v 59.61663 H 568.59975 Z"
         id="path550"
         inkscape:connector-curvature="0"
         style="clip-rule:evenodd" /></clipPath><clipPath
       clipPathUnits="userSpaceOnUse"
       id="clipPath566"><path
         d="M 0,0 H 1122 V 793.33333 H 0 Z"
         id="path564"
         inkscape:connector-curvature="0"
         style="clip-rule:evenodd" /></clipPath><clipPath
       clipPathUnits="userSpaceOnUse"
       id="clipPath572"><path
         d="m 568.59975,555.74724 h 109.46716 v 59.61663 H 568.59975 Z"
         id="path570"
         inkscape:connector-curvature="0"
         style="clip-rule:evenodd" /></clipPath><clipPath
       clipPathUnits="userSpaceOnUse"
       id="clipPath578"><path
         d="m 542.94501,549.30574 h 160.77664 v 72.49963 H 542.94501 Z"
         id="path576"
         inkscape:connector-curvature="0"
         style="clip-rule:evenodd" /></clipPath><clipPath
       clipPathUnits="userSpaceOnUse"
       id="clipPath598"><path
         d="M 0,0 H 1122 V 793.33333 H 0 Z"
         id="path596"
         inkscape:connector-curvature="0"
         style="clip-rule:evenodd" /></clipPath><clipPath
       clipPathUnits="userSpaceOnUse"
       id="clipPath608"><path
         d="M 0,0 H 1122 V 793.33333 H 0 Z"
         id="path606"
         inkscape:connector-curvature="0"
         style="clip-rule:evenodd" /></clipPath><clipPath
       clipPathUnits="userSpaceOnUse"
       id="clipPath614"><path
         d="m 568.59975,555.74724 h 109.46716 v 59.61663 H 568.59975 Z"
         id="path612"
         inkscape:connector-curvature="0"
         style="clip-rule:evenodd" /></clipPath><clipPath
       clipPathUnits="userSpaceOnUse"
       id="clipPath634"><path
         d="M 0,0 H 1122 V 793.33333 H 0 Z"
         id="path632"
         inkscape:connector-curvature="0"
         style="clip-rule:evenodd" /></clipPath><clipPath
       clipPathUnits="userSpaceOnUse"
       id="clipPath670"><path
         d="M 0,0 H 1122 V 793.33333 H 0 Z"
         id="path668"
         inkscape:connector-curvature="0"
         style="clip-rule:evenodd" /></clipPath><clipPath
       clipPathUnits="userSpaceOnUse"
       id="clipPath676"><path
         d="m 630.75104,332.97015 h 126.01285 v 23.01939 H 630.75104 Z"
         id="path674"
         inkscape:connector-curvature="0"
         style="clip-rule:evenodd" /></clipPath><clipPath
       clipPathUnits="userSpaceOnUse"
       id="clipPath690"><path
         d="M 0,0 H 1122 V 793.33333 H 0 Z"
         id="path688"
         inkscape:connector-curvature="0"
         style="clip-rule:evenodd" /></clipPath><clipPath
       clipPathUnits="userSpaceOnUse"
       id="clipPath696"><path
         d="m 630.75104,332.97015 h 126.01285 v 23.01939 H 630.75104 Z"
         id="path694"
         inkscape:connector-curvature="0"
         style="clip-rule:evenodd" /></clipPath><clipPath
       clipPathUnits="userSpaceOnUse"
       id="clipPath702"><path
         d="m 605.0963,307.31541 h 177.32233 v 72.49963 H 605.0963 Z"
         id="path700"
         inkscape:connector-curvature="0"
         style="clip-rule:evenodd" /></clipPath><clipPath
       clipPathUnits="userSpaceOnUse"
       id="clipPath722"><path
         d="M 0,0 H 1122 V 793.33333 H 0 Z"
         id="path720"
         inkscape:connector-curvature="0"
         style="clip-rule:evenodd" /></clipPath><clipPath
       clipPathUnits="userSpaceOnUse"
       id="clipPath732"><path
         d="M 0,0 H 1122 V 793.33333 H 0 Z"
         id="path730"
         inkscape:connector-curvature="0"
         style="clip-rule:evenodd" /></clipPath><clipPath
       clipPathUnits="userSpaceOnUse"
       id="clipPath738"><path
         d="m 630.75104,332.97015 h 126.01285 v 23.01939 H 630.75104 Z"
         id="path736"
         inkscape:connector-curvature="0"
         style="clip-rule:evenodd" /></clipPath><clipPath
       clipPathUnits="userSpaceOnUse"
       id="clipPath758"><path
         d="M 0,0 H 1122 V 793.33333 H 0 Z"
         id="path756"
         inkscape:connector-curvature="0"
         style="clip-rule:evenodd" /></clipPath><clipPath
       clipPathUnits="userSpaceOnUse"
       id="clipPath784"><path
         d="M 0,0 H 1122 V 793.33333 H 0 Z"
         id="path782"
         inkscape:connector-curvature="0"
         style="clip-rule:evenodd" /></clipPath><clipPath
       clipPathUnits="userSpaceOnUse"
       id="clipPath790"><path
         d="m 630.38693,502.87218 h 64.00595 v 34.51798 h -64.00595 z"
         id="path788"
         inkscape:connector-curvature="0"
         style="clip-rule:evenodd" /></clipPath><clipPath
       clipPathUnits="userSpaceOnUse"
       id="clipPath804"><path
         d="M 0,0 H 1122 V 793.33333 H 0 Z"
         id="path802"
         inkscape:connector-curvature="0"
         style="clip-rule:evenodd" /></clipPath><clipPath
       clipPathUnits="userSpaceOnUse"
       id="clipPath810"><path
         d="m 630.38693,502.87218 h 64.00595 v 34.51798 h -64.00595 z"
         id="path808"
         inkscape:connector-curvature="0"
         style="clip-rule:evenodd" /></clipPath><clipPath
       clipPathUnits="userSpaceOnUse"
       id="clipPath816"><path
         d="m 604.73219,477.21744 h 115.31543 v 72.49963 H 604.73219 Z"
         id="path814"
         inkscape:connector-curvature="0"
         style="clip-rule:evenodd" /></clipPath><clipPath
       clipPathUnits="userSpaceOnUse"
       id="clipPath836"><path
         d="M 0,0 H 1122 V 793.33333 H 0 Z"
         id="path834"
         inkscape:connector-curvature="0"
         style="clip-rule:evenodd" /></clipPath><clipPath
       clipPathUnits="userSpaceOnUse"
       id="clipPath846"><path
         d="M 0,0 H 1122 V 793.33333 H 0 Z"
         id="path844"
         inkscape:connector-curvature="0"
         style="clip-rule:evenodd" /></clipPath><clipPath
       clipPathUnits="userSpaceOnUse"
       id="clipPath852"><path
         d="m 630.38693,502.87218 h 64.00595 v 34.51798 h -64.00595 z"
         id="path850"
         inkscape:connector-curvature="0"
         style="clip-rule:evenodd" /></clipPath><clipPath
       clipPathUnits="userSpaceOnUse"
       id="clipPath872"><path
         d="M 0,0 H 1122 V 793.33333 H 0 Z"
         id="path870"
         inkscape:connector-curvature="0"
         style="clip-rule:evenodd" /></clipPath><clipPath
       clipPathUnits="userSpaceOnUse"
       id="clipPath908"><path
         d="M 0,0 H 1122 V 793.33333 H 0 Z"
         id="path906"
         inkscape:connector-curvature="0"
         style="clip-rule:evenodd" /></clipPath><clipPath
       clipPathUnits="userSpaceOnUse"
       id="clipPath914"><path
         d="m 622.3338,306.12265 h 1.99907 v 74.3611 h -1.99907 z"
         id="path912"
         inkscape:connector-curvature="0"
         style="clip-rule:evenodd" /></clipPath><clipPath
       clipPathUnits="userSpaceOnUse"
       id="clipPath928"><path
         d="M 0,0 H 1122 V 793.33333 H 0 Z"
         id="path926"
         inkscape:connector-curvature="0"
         style="clip-rule:evenodd" /></clipPath><clipPath
       clipPathUnits="userSpaceOnUse"
       id="clipPath934"><path
         d="m 622.3338,306.12265 h 1.99907 v 74.3611 h -1.99907 z"
         id="path932"
         inkscape:connector-curvature="0"
         style="clip-rule:evenodd" /></clipPath><clipPath
       clipPathUnits="userSpaceOnUse"
       id="clipPath940"><path
         d="m 596.67906,307.05339 h 53.30855 v 72.49962 h -53.30855 z"
         id="path938"
         inkscape:connector-curvature="0"
         style="clip-rule:evenodd" /></clipPath><clipPath
       clipPathUnits="userSpaceOnUse"
       id="clipPath954"><path
         d="M 0,0 H 1122 V 793.33333 H 0 Z"
         id="path952"
         inkscape:connector-curvature="0"
         style="clip-rule:evenodd" /></clipPath><clipPath
       clipPathUnits="userSpaceOnUse"
       id="clipPath964"><path
         d="M 0,0 H 1122 V 793.33333 H 0 Z"
         id="path962"
         inkscape:connector-curvature="0"
         style="clip-rule:evenodd" /></clipPath><clipPath
       clipPathUnits="userSpaceOnUse"
       id="clipPath970"><path
         d="m 622.3338,306.12265 h 1.99907 v 74.3611 h -1.99907 z"
         id="path968"
         inkscape:connector-curvature="0"
         style="clip-rule:evenodd" /></clipPath><clipPath
       clipPathUnits="userSpaceOnUse"
       id="clipPath990"><path
         d="M 0,0 H 1122 V 793.33333 H 0 Z"
         id="path988"
         inkscape:connector-curvature="0"
         style="clip-rule:evenodd" /></clipPath></defs><sodipodi:namedview
     pagecolor="#ffffff"
     bordercolor="#666666"
     borderopacity="1"
     objecttolerance="10"
     gridtolerance="10"
     guidetolerance="10"
     inkscape:pageopacity="0"
     inkscape:pageshadow="2"
     inkscape:window-width="1920"
     inkscape:window-height="1015"
     id="namedview4"
     showgrid="false"
     fit-margin-top="0"
     fit-margin-left="0"
     fit-margin-right="0"
     fit-margin-bottom="0"
     inkscape:zoom="0.783528"
     inkscape:cx="99.500056"
     inkscape:cy="250.36124"
     inkscape:window-x="0"
     inkscape:window-y="0"
     inkscape:window-maximized="1"
     inkscape:current-layer="g10" /><g
     id="g10"
     inkscape:groupmode="layer"
     inkscape:label="provagraf"
     transform="matrix(1.3333333,0,0,-1.3333333,-461.83332,717.01576)"><g
       id="g14"
       transform="matrix(0.75,0,0,-0.75,0,595)"><g
         id="g16" /></g><g
       id="g18"
       transform="matrix(0.75,0,0,-0.75,0,595)"><g
         id="g20" /></g><g
       id="g22"
       transform="matrix(0.75,0,0,-0.75,0,595)"><g
         clip-path="url(#clipPath28)"
         id="g24"><g
           id="g30" /><g
           id="g32" /><g
           id="g34"><path
             inkscape:connector-curvature="0"
             id="path36"
             style="fill:#ffffff;fill-opacity:1;fill-rule:nonzero;stroke:none"
             d="M 462.77778,77.261998 H 783.88889 V 187.18245 H 462.77778 Z" /></g><g
           id="g38" /><g
           id="g40"><path
             inkscape:connector-curvature="0"
             id="path42"
             style="fill:#000000;fill-opacity:1;fill-rule:nonzero;stroke:none"
             d="m 462.77778,76.317553 h 321.11111 l 0.94444,0.944445 V 187.18245 l -0.94444,0.94444 H 462.77778 l -0.94445,-0.94444 V 77.261998 Z m 0.94444,0.944445 V 187.18245 h -0.94444 V 186.238 h 321.11111 v 0.94445 h -0.94445 V 77.261998 h 0.94445 v 0.944444 H 462.77778 v -0.944444 z" /></g><g
           id="g44" /><g
           id="g46" /><g
           id="g48" /></g></g><g
       id="g50"
       transform="matrix(0.75,0,0,-0.75,0,595)"><g
         clip-path="url(#clipPath56)"
         id="g52"><g
           clip-path="url(#clipPath62)"
           id="g58"><g
             id="g64" /><g
             id="g66" /><g
             transform="matrix(1.3327137,0,0,1.3327137,462.77778,122.62668)"
             id="g68" /></g></g></g><g
       id="g70"
       transform="matrix(0.75,0,0,-0.75,0,595)"><g
         clip-path="url(#clipPath76)"
         id="g72"><g
           clip-path="url(#clipPath82)"
           id="g78"><g
             clip-path="url(#clipPath88)"
             id="g84"><g
               transform="matrix(1.3327137,0,0,1.3327137,462.77778,122.62668)"
               id="g90"><g
                 id="g92"><text
                   id="text96"
                   style="font-variant:normal;font-weight:normal;font-size:12px;font-family:'DejaVu Sans';-inkscape-font-specification:DejaVuSans;writing-mode:lr-tb;fill:#000000;fill-opacity:1;fill-rule:nonzero;stroke:none"
                   transform="translate(67.359375,12)"><tspan
                     id="tspan94"
                     sodipodi:role="line"
                     y="0"
                     x="0 0 7.234375 12.15625 19.53125 26.625 29.953125 37.28125 44.875 51.125 54.9375 62.546875 65.875 73.484375 77.296875 83.890625 91.21875 98.828125">	Previous	big	code</tspan></text>
</g></g></g></g></g></g><g
       id="g98"
       transform="matrix(0.75,0,0,-0.75,0,595)"><g
         transform="matrix(1.3327137,0,0,1.3327137,462.77778,122.62668)"
         id="g100" /></g><g
       id="g102"
       transform="matrix(0.75,0,0,-0.75,0,595)"><g
         clip-path="url(#clipPath108)"
         id="g104"><g
           transform="scale(0.9995353)"
           id="g110" /></g></g><g
       id="g112"
       transform="matrix(0.75,0,0,-0.75,0,595)"><g
         clip-path="url(#clipPath118)"
         id="g114"><g
           clip-path="url(#clipPath124)"
           id="g120"><g
             transform="matrix(1.3327137,0,0,1.3327137,462.77778,77.261998)"
             id="g126" /><g
             transform="matrix(1.3327137,0,0,1.3327137,462.77778,122.62668)"
             id="g128" /><g
             id="g130" /><g
             id="g132" /></g></g></g><g
       id="g134"
       transform="matrix(0.75,0,0,-0.75,0,595)"><g
         id="g136" /></g><g
       id="g138"
       transform="matrix(0.75,0,0,-0.75,0,595)"><g
         clip-path="url(#clipPath144)"
         id="g140"><g
           id="g146" /><g
           id="g148" /><g
           id="g150" /><g
           id="g152" /><g
           id="g154"><path
             inkscape:connector-curvature="0"
             id="path156"
             style="fill:#ff0000;fill-opacity:1;fill-rule:nonzero;stroke:none"
             d="m 562.88889,246.30244 h 120.88889 l 0.95955,0.95956 v 59.86018 l -0.95955,0.95956 H 562.88889 l -0.95956,-0.95956 V 247.262 Z m 0.95955,0.95956 v 59.86018 h -0.95955 v -0.95955 h 120.88889 v 0.95955 h -0.95956 V 247.262 h 0.95956 v 0.95955 H 562.88889 V 247.262 Z" /></g><g
           id="g158" /><g
           id="g160" /><g
           id="g162" /></g></g><g
       id="g164"
       transform="matrix(0.75,0,0,-0.75,0,595)"><g
         clip-path="url(#clipPath170)"
         id="g166"><g
           clip-path="url(#clipPath176)"
           id="g172"><g
             id="g178" /><g
             id="g180" /><g
             transform="matrix(1.3327137,0,0,1.3327137,562.88889,248.40547)"
             id="g182" /></g></g></g><g
       id="g184"
       transform="matrix(0.75,0,0,-0.75,0,595)"><g
         clip-path="url(#clipPath190)"
         id="g186"><g
           clip-path="url(#clipPath196)"
           id="g192"><g
             clip-path="url(#clipPath202)"
             id="g198"><g
               transform="matrix(1.3327137,0,0,1.3327137,562.88889,248.40547)"
               id="g204"><g
                 id="g206"><text
                   id="text210"
                   style="font-variant:normal;font-weight:normal;font-size:12px;font-family:'DejaVu Sans';-inkscape-font-specification:DejaVuSans;writing-mode:lr-tb;fill:#000000;fill-opacity:1;fill-rule:nonzero;stroke:none"
                   transform="translate(28.703125,12)"><tspan
                     id="tspan208"
                     sodipodi:role="line"
                     y="0"
                     x="0 0 7.609375 19.296875 26.640625 29.96875">	Small</tspan></text>
</g><g
                 id="g212"><text
                   id="text216"
                   style="font-variant:normal;font-weight:normal;font-size:12px;font-family:'DejaVu Sans';-inkscape-font-specification:DejaVuSans;writing-mode:lr-tb;fill:#000000;fill-opacity:1;fill-rule:nonzero;stroke:none"
                   transform="translate(14.796875,26.390625)"><tspan
                     id="tspan214"
                     sodipodi:role="line"
                     y="0"
                     x="0 7.375 14.46875 22.078125 29.453125 37.046875 43.296875 46.625 53.71875">expensive</tspan></text>
</g><g
                 id="g218"><text
                   id="text222"
                   style="font-variant:normal;font-weight:normal;font-size:12px;font-family:'DejaVu Sans';-inkscape-font-specification:DejaVuSans;writing-mode:lr-tb;fill:#000000;fill-opacity:1;fill-rule:nonzero;stroke:none"
                   transform="translate(30.890625,40.796875)"><tspan
                     id="tspan220"
                     sodipodi:role="line"
                     y="0"
                     x="0 6.59375 13.921875 21.53125">code</tspan></text>
</g></g></g></g></g></g><g
       id="g224"
       transform="matrix(0.75,0,0,-0.75,0,595)"><g
         transform="matrix(1.3327137,0,0,1.3327137,562.88889,248.40547)"
         id="g226" /></g><g
       id="g228"
       transform="matrix(0.75,0,0,-0.75,0,595)"><g
         clip-path="url(#clipPath234)"
         id="g230"><g
           transform="scale(0.9995353)"
           id="g236" /></g></g><g
       id="g238"
       transform="matrix(0.75,0,0,-0.75,0,595)"><g
         clip-path="url(#clipPath244)"
         id="g240"><g
           clip-path="url(#clipPath250)"
           id="g246"><g
             transform="matrix(1.3327137,0,0,1.3327137,562.88889,247.262)"
             id="g252" /><g
             transform="matrix(1.3327137,0,0,1.3327137,562.88889,248.40547)"
             id="g254" /><g
             id="g256" /><g
             id="g258" /></g></g></g><g
       id="g260"
       transform="matrix(0.75,0,0,-0.75,0,595)"><g
         id="g262" /></g><path
       d="m 466.71633,410.96102 -4.90937,14.72812 h 10.71075 l -5.35538,-16.06612 z m -0.0241,10.02519 v 8.92849 2.38852 2.38851 18.805 0.47013 h 0.94025 v -0.47013 -18.805 -2.38851 -2.38852 -8.92849 -0.47013 h -0.94025 z"
       style="fill:#000000;fill-opacity:1;fill-rule:nonzero;stroke:none;stroke-width:0.7055155"
       id="path282"
       inkscape:connector-curvature="0" /><path
       d="m 473.81294,444.40337 h 93.01032 v -18.33819 h -93.01032 z"
       style="fill:#ffffff;fill-opacity:1;fill-rule:nonzero;stroke:none;stroke-width:0.75"
       id="path292"
       inkscape:connector-curvature="0" /><g
       id="g300"
       transform="matrix(0.75,0,0,-0.75,0,595)"><g
         clip-path="url(#clipPath306)"
         id="g302"><g
           clip-path="url(#clipPath312)"
           id="g308"><g
             id="g314" /><g
             id="g316" /><g
             transform="matrix(1.3327137,0,0,1.3327137,631.75058,200.7955)"
             id="g318" /></g></g></g><g
       id="g320"
       transform="matrix(0.75,0,0,-0.75,0,595)"><g
         clip-path="url(#clipPath326)"
         id="g322"><g
           clip-path="url(#clipPath332)"
           id="g328"><g
             clip-path="url(#clipPath338)"
             id="g334"><g
               transform="matrix(1.3327137,0,0,1.3327137,631.75058,200.7955)"
               id="g340"><g
                 id="g342"><text
                   id="text346"
                   style="font-variant:normal;font-weight:normal;font-size:12px;font-family:'DejaVu Sans';-inkscape-font-specification:DejaVuSans;writing-mode:lr-tb;fill:#000000;fill-opacity:1;fill-rule:nonzero;stroke:none"
                   transform="translate(0,12)"><tspan
                     id="tspan344"
                     sodipodi:role="line"
                     y="0"
                     x="0 7.609375 14.9375 26.625 34 37.8125 45.421875 52.765625 57.46875">Some	data</tspan></text>
</g></g></g></g></g></g><g
       id="g348"
       transform="matrix(0.75,0,0,-0.75,0,595)"><g
         transform="matrix(1.3327137,0,0,1.3327137,631.75058,200.7955)"
         id="g350" /></g><g
       id="g352"
       transform="matrix(0.75,0,0,-0.75,0,595)"><g
         clip-path="url(#clipPath358)"
         id="g354"><g
           transform="scale(0.9995353)"
           id="g360" /></g></g><g
       id="g362"
       transform="matrix(0.75,0,0,-0.75,0,595)"><g
         clip-path="url(#clipPath368)"
         id="g364"><g
           clip-path="url(#clipPath374)"
           id="g370"><g
             transform="matrix(1.3327137,0,0,1.3327137,631.75058,200.7955)"
             id="g376" /><g
             transform="matrix(1.3327137,0,0,1.3327137,631.75058,200.7955)"
             id="g378" /><g
             id="g380" /><g
             id="g382" /></g></g></g><g
       id="g384"
       transform="matrix(0.75,0,0,-0.75,0,595)"><g
         id="g386" /></g><g
       id="g388"
       transform="matrix(0.75,0,0,-0.75,0,595)"><g
         clip-path="url(#clipPath394)"
         id="g390"><g
           id="g396" /><g
           id="g398" /><g
           id="g400" /><g
           id="g402" /><g
           id="g404"><path
             inkscape:connector-curvature="0"
             id="path406"
             style="fill:#ffffff;fill-opacity:1;fill-rule:nonzero;stroke:none"
             d="M 462.77778,379.48422 H 783.88889 V 489.40467 H 462.77778 Z" /></g><g
           id="g408" /><g
           id="g410"><path
             inkscape:connector-curvature="0"
             id="path412"
             style="fill:#000000;fill-opacity:1;fill-rule:nonzero;stroke:none"
             d="m 462.77778,378.53977 h 321.11111 l 0.94444,0.94445 v 109.92045 l -0.94444,0.94444 H 462.77778 l -0.94445,-0.94444 V 379.48422 Z m 0.94444,0.94445 v 109.92045 h -0.94444 v -0.94445 h 321.11111 v 0.94445 h -0.94445 V 379.48422 h 0.94445 v 0.94444 H 462.77778 v -0.94444 z" /></g><g
           id="g414" /><g
           id="g416" /><g
           id="g418" /></g></g><g
       id="g420"
       transform="matrix(0.75,0,0,-0.75,0,595)"><g
         clip-path="url(#clipPath426)"
         id="g422"><g
           clip-path="url(#clipPath432)"
           id="g428"><g
             id="g434" /><g
             id="g436" /><g
             transform="matrix(1.3327137,0,0,1.3327137,462.77778,424.8489)"
             id="g438" /></g></g></g><g
       id="g440"
       transform="matrix(0.75,0,0,-0.75,0,595)"><g
         clip-path="url(#clipPath446)"
         id="g442"><g
           clip-path="url(#clipPath452)"
           id="g448"><g
             clip-path="url(#clipPath458)"
             id="g454"><g
               transform="matrix(1.3327137,0,0,1.3327137,462.77778,424.8489)"
               id="g460"><g
                 id="g462"><text
                   id="text466"
                   style="font-variant:normal;font-weight:normal;font-size:12px;font-family:'DejaVu Sans';-inkscape-font-specification:DejaVuSans;writing-mode:lr-tb;fill:#000000;fill-opacity:1;fill-rule:nonzero;stroke:none"
                   transform="translate(64.65625,12)"><tspan
                     id="tspan464"
                     sodipodi:role="line"
                     y="0"
                     x="0 6.890625 14.21875 17.546875 20.875 28.203125 38.015625 41.34375 48.9375 56.546875 60.359375 67.96875 71.296875 78.90625 82.71875 89.3125 96.640625 104.25">Following	big	code</tspan></text>
</g></g></g></g></g></g><g
       id="g468"
       transform="matrix(0.75,0,0,-0.75,0,595)"><g
         transform="matrix(1.3327137,0,0,1.3327137,462.77778,424.8489)"
         id="g470" /></g><g
       id="g472"
       transform="matrix(0.75,0,0,-0.75,0,595)"><g
         clip-path="url(#clipPath478)"
         id="g474"><g
           transform="scale(0.9995353)"
           id="g480" /></g></g><g
       id="g482"
       transform="matrix(0.75,0,0,-0.75,0,595)"><g
         clip-path="url(#clipPath488)"
         id="g484"><g
           clip-path="url(#clipPath494)"
           id="g490"><g
             transform="matrix(1.3327137,0,0,1.3327137,462.77778,379.48422)"
             id="g496" /><g
             transform="matrix(1.3327137,0,0,1.3327137,462.77778,424.8489)"
             id="g498" /><g
             id="g500" /><g
             id="g502" /></g></g></g><g
       id="g504"
       transform="matrix(0.75,0,0,-0.75,0,595)"><g
         id="g506" /></g><g
       id="g508"
       transform="matrix(0.75,0,0,-0.75,0,595)"><g
         clip-path="url(#clipPath514)"
         id="g510"><g
           id="g516" /><g
           id="g518" /><g
           id="g520" /><g
           id="g522" /><g
           id="g524"><path
             inkscape:connector-curvature="0"
             id="path526"
             style="fill:#ffffff;fill-opacity:1;fill-rule:nonzero;stroke:none"
             d="m 677.06738,585.55555 c 0,-15.91064 -24.05756,-28.80877 -53.73405,-28.80877 -29.67649,0 -53.73404,12.89813 -53.73404,28.80877 0,15.91065 24.05755,28.80878 53.73404,28.80878 29.67649,0 53.73405,-12.89813 53.73405,-28.80878" /></g><g
           id="g528" /><g
           id="g530"><path
             inkscape:connector-curvature="0"
             id="path532"
             style="fill:#000000;fill-opacity:1;fill-rule:nonzero;stroke:none"
             d="m 676.12293,585.55555 c 0,-15.34538 -23.35031,-27.86433 -52.7896,-27.86433 -29.43929,0 -52.7896,12.51895 -52.7896,27.86433 0,15.34539 23.35031,27.86434 52.7896,27.86434 29.43929,0 52.7896,-12.51895 52.7896,-27.86434 m 1.88889,0 c 0,16.47592 -24.76479,29.75323 -54.67849,29.75323 -29.9137,0 -54.67848,-13.27731 -54.67848,-29.75323 0,-16.47591 24.76478,-29.75322 54.67848,-29.75322 29.9137,0 54.67849,13.27731 54.67849,29.75322" /></g><g
           id="g534" /><g
           id="g536" /><g
           id="g538" /></g></g><g
       id="g540"
       transform="matrix(0.75,0,0,-0.75,0,595)"><g
         clip-path="url(#clipPath546)"
         id="g542"><g
           clip-path="url(#clipPath552)"
           id="g548"><g
             id="g554" /><g
             id="g556" /><g
             transform="matrix(1.3327137,0,0,1.3327137,569.59929,575.96002)"
             id="g558" /></g></g></g><g
       id="g560"
       transform="matrix(0.75,0,0,-0.75,0,595)"><g
         clip-path="url(#clipPath566)"
         id="g562"><g
           clip-path="url(#clipPath572)"
           id="g568"><g
             clip-path="url(#clipPath578)"
             id="g574"><g
               transform="matrix(1.3327137,0,0,1.3327137,569.59929,575.96002)"
               id="g580"><g
                 id="g582"><text
                   id="text586"
                   style="font-variant:normal;font-weight:normal;font-size:12px;font-family:'DejaVu Sans';-inkscape-font-specification:DejaVuSans;writing-mode:lr-tb;fill:#000000;fill-opacity:1;fill-rule:nonzero;stroke:none"
                   transform="translate(24.4375,12)"><tspan
                     id="tspan584"
                     sodipodi:role="line"
                     y="0"
                     x="0 7.234375 12.15625 19.484375 23.703125 27.03125 31.734375">Profit	</tspan></text>
</g></g></g></g></g></g><g
       id="g588"
       transform="matrix(0.75,0,0,-0.75,0,595)"><g
         transform="matrix(1.3327137,0,0,1.3327137,569.59929,575.96002)"
         id="g590" /></g><g
       id="g592"
       transform="matrix(0.75,0,0,-0.75,0,595)"><g
         clip-path="url(#clipPath598)"
         id="g594"><g
           transform="scale(0.9995353)"
           id="g600" /></g></g><g
       id="g602"
       transform="matrix(0.75,0,0,-0.75,0,595)"><g
         clip-path="url(#clipPath608)"
         id="g604"><g
           clip-path="url(#clipPath614)"
           id="g610"><g
             transform="matrix(1.3327137,0,0,1.3327137,569.59929,556.74678)"
             id="g616" /><g
             transform="matrix(1.3327137,0,0,1.3327137,569.59929,575.96002)"
             id="g618" /><g
             id="g620" /><g
             id="g622" /></g></g></g><g
       id="g624"
       transform="matrix(0.75,0,0,-0.75,0,595)"><g
         id="g626" /></g><g
       id="g636"
       transform="matrix(0.75,0,0,-0.75,0,595)" /><g
       id="g638"
       transform="matrix(0.75,0,0,-0.75,0,595)" /><g
       id="g640"
       transform="matrix(0.75,0,0,-0.75,0,595)" /><g
       id="g642"
       transform="matrix(0.75,0,0,-0.75,0,595)" /><g
       id="g644"
       transform="matrix(0.70551563,0,0,-0.70551563,27.390922,572.08948)"><path
         inkscape:connector-curvature="0"
         id="path646"
         style="fill:#000000;fill-opacity:1;fill-rule:nonzero;stroke:none"
         d="m 622.70117,556.9575 -6.95856,-20.87569 h 15.18145 l -7.59073,22.77217 z m 1.29852,-67.55283 v 26.65425 7.01674 7.01686 12.65523 0.66636 h -1.33271 v -0.66636 -12.65523 -7.01686 -7.01674 -26.65425 -0.66636 h 1.33271 z" /></g><g
       id="g648"
       transform="matrix(0.75,0,0,-0.75,0,595)" /><g
       id="g650"
       transform="matrix(0.75,0,0,-0.75,0,595)" /><g
       id="g652"
       transform="matrix(0.75,0,0,-0.75,0,595)" /><g
       id="g654"
       transform="matrix(0.75,0,0,-0.75,0,595)"><path
         inkscape:connector-curvature="0"
         id="path656"
         style="fill:#ffffff;fill-opacity:1;fill-rule:nonzero;stroke:none"
         d="m 631.75058,333.96969 h 124.01377 v 21.02032 H 631.75058 Z" /></g><g
       id="g658"
       transform="matrix(0.75,0,0,-0.75,0,595)" /><g
       id="g660"
       transform="matrix(0.75,0,0,-0.75,0,595)" /><g
       id="g662"
       transform="matrix(0.75,0,0,-0.75,0,595)" /><g
       id="g664"
       transform="matrix(0.75,0,0,-0.75,0,595)"><g
         clip-path="url(#clipPath670)"
         id="g666"><g
           clip-path="url(#clipPath676)"
           id="g672"><g
             id="g678" /><g
             id="g680" /><g
             transform="matrix(1.3327137,0,0,1.3327137,631.75058,333.96969)"
             id="g682" /></g></g></g><g
       id="g684"
       transform="matrix(0.75,0,0,-0.75,0,595)"><g
         clip-path="url(#clipPath690)"
         id="g686"><g
           clip-path="url(#clipPath696)"
           id="g692"><g
             clip-path="url(#clipPath702)"
             id="g698"><g
               transform="matrix(1.3327137,0,0,1.3327137,631.75058,333.96969)"
               id="g704"><g
                 id="g706"><text
                   id="text710"
                   style="font-variant:normal;font-weight:normal;font-size:12px;font-family:'DejaVu Sans';-inkscape-font-specification:DejaVuSans;writing-mode:lr-tb;fill:#000000;fill-opacity:1;fill-rule:nonzero;stroke:none"
                   transform="translate(0,12)"><tspan
                     id="tspan708"
                     sodipodi:role="line"
                     y="0"
                     x="0 7.609375 14.9375 26.625 34 37.8125 42.734375 50.109375 56.359375 63.953125 67.28125 71.984375">Some	results</tspan></text>
</g></g></g></g></g></g><g
       id="g712"
       transform="matrix(0.75,0,0,-0.75,0,595)"><g
         transform="matrix(1.3327137,0,0,1.3327137,631.75058,333.96969)"
         id="g714" /></g><g
       id="g716"
       transform="matrix(0.75,0,0,-0.75,0,595)"><g
         clip-path="url(#clipPath722)"
         id="g718"><g
           transform="scale(0.9995353)"
           id="g724" /></g></g><g
       id="g726"
       transform="matrix(0.75,0,0,-0.75,0,595)"><g
         clip-path="url(#clipPath732)"
         id="g728"><g
           clip-path="url(#clipPath738)"
           id="g734"><g
             transform="matrix(1.3327137,0,0,1.3327137,631.75058,333.96969)"
             id="g740" /><g
             transform="matrix(1.3327137,0,0,1.3327137,631.75058,333.96969)"
             id="g742" /><g
             id="g744" /><g
             id="g746" /></g></g></g><g
       id="g748"
       transform="matrix(0.75,0,0,-0.75,0,595)"><g
         id="g750" /></g><path
       d="m 473.53985,217.09621 h 46.50516 v -24.38918 h -46.50516 z"
       style="fill:#ffffff;fill-opacity:1;fill-rule:nonzero;stroke:none;stroke-width:0.75"
       id="path770"
       inkscape:connector-curvature="0" /><g
       id="g778"
       transform="matrix(0.75,0,0,-0.75,0,595)"><g
         clip-path="url(#clipPath784)"
         id="g780"><g
           clip-path="url(#clipPath790)"
           id="g786"><g
             id="g792" /><g
             id="g794" /><g
             transform="matrix(1.3327137,0,0,1.3327137,631.38646,503.87172)"
             id="g796" /></g></g></g><g
       id="g798"
       transform="matrix(0.75,0,0,-0.75,0,595)"><g
         clip-path="url(#clipPath804)"
         id="g800"><g
           clip-path="url(#clipPath810)"
           id="g806"><g
             clip-path="url(#clipPath816)"
             id="g812"><g
               transform="matrix(1.3327137,0,0,1.3327137,631.38646,503.87172)"
               id="g818"><g
                 id="g820"><text
                   id="text824"
                   style="font-variant:normal;font-weight:normal;font-size:12px;font-family:'DejaVu Sans';-inkscape-font-specification:DejaVuSans;writing-mode:lr-tb;fill:#000000;fill-opacity:1;fill-rule:nonzero;stroke:none"
                   transform="translate(0,12)"><tspan
                     id="tspan822"
                     sodipodi:role="line"
                     y="0"
                     x="0 6.359375 12.71875">???</tspan></text>
</g></g></g></g></g></g><g
       id="g826"
       transform="matrix(0.75,0,0,-0.75,0,595)"><g
         transform="matrix(1.3327137,0,0,1.3327137,631.38646,503.87172)"
         id="g828" /></g><g
       id="g830"
       transform="matrix(0.75,0,0,-0.75,0,595)"><g
         clip-path="url(#clipPath836)"
         id="g832"><g
           transform="scale(0.9995353)"
           id="g838" /></g></g><g
       id="g840"
       transform="matrix(0.75,0,0,-0.75,0,595)"><g
         clip-path="url(#clipPath846)"
         id="g842"><g
           clip-path="url(#clipPath852)"
           id="g848"><g
             transform="matrix(1.3327137,0,0,1.3327137,631.38646,503.87172)"
             id="g854" /><g
             transform="matrix(1.3327137,0,0,1.3327137,631.38646,503.87172)"
             id="g856" /><g
             id="g858" /><g
             id="g860" /></g></g></g><g
       id="g862"
       transform="matrix(0.75,0,0,-0.75,0,595)"><g
         id="g864" /></g><path
       d="m 466.7166,312.27525 -4.90934,14.72812 h 10.71075 l -5.35538,-16.0661 z m 0.91618,51.20119 v -18.805 -6.72122 -6.72129 -8.92848 -0.47015 h -0.94028 v 0.47015 8.92848 6.72129 6.72122 18.805 0.47013 h 0.94028 z"
       style="fill:#000000;fill-opacity:1;fill-rule:nonzero;stroke:none;stroke-width:0.70551586"
       id="path894"
       inkscape:connector-curvature="0" /><g
       id="g902"
       transform="matrix(0.75,0,0,-0.75,0,595)"><g
         clip-path="url(#clipPath908)"
         id="g904"><g
           clip-path="url(#clipPath914)"
           id="g910"><g
             id="g916" /><g
             id="g918" /><g
             transform="matrix(1.3327137,0,0,1.3327137,623.33333,333.70766)"
             id="g920" /></g></g></g><g
       id="g922"
       transform="matrix(0.75,0,0,-0.75,0,595)"><g
         clip-path="url(#clipPath928)"
         id="g924"><g
           clip-path="url(#clipPath934)"
           id="g930"><g
             clip-path="url(#clipPath940)"
             id="g936"><g
               transform="matrix(1.3327137,0,0,1.3327137,623.33333,333.70766)"
               id="g942" /></g></g></g></g><g
       id="g944"
       transform="matrix(0.75,0,0,-0.75,0,595)"><g
         transform="matrix(1.3327137,0,0,1.3327137,623.33333,333.70766)"
         id="g946" /></g><g
       id="g948"
       transform="matrix(0.75,0,0,-0.75,0,595)"><g
         clip-path="url(#clipPath954)"
         id="g950"><g
           transform="scale(0.9995353)"
           id="g956" /></g></g><g
       id="g958"
       transform="matrix(0.75,0,0,-0.75,0,595)"><g
         clip-path="url(#clipPath964)"
         id="g960"><g
           clip-path="url(#clipPath970)"
           id="g966"><g
             transform="matrix(1.3327137,0,0,1.3327137,623.33333,307.12218)"
             id="g972" /><g
             transform="matrix(1.3327137,0,0,1.3327137,623.33333,333.70766)"
             id="g974" /><g
             id="g976" /><g
             id="g978" /></g></g></g><g
       id="g980"
       transform="matrix(0.75,0,0,-0.75,0,595)"><g
         id="g982" /></g><g
       id="g984"
       transform="matrix(0.75,0,0,-0.75,0,595)"><g
         clip-path="url(#clipPath990)"
         id="g986"><g
           id="g992" /><g
           id="g994" /><g
           id="g996" /></g></g><g
       id="g998"
       transform="matrix(0.75,0,0,-0.75,0,595)"><g
         id="g1000" /></g></g></svg>